<?xml version="1.0" encoding="UTF-8" standalone="no"?>
<svg
   width="18.9"
   height="22"
   viewBox="0 0 18.9 22"
   fill="none"
   version="1.1"
   id="svg6"
   sodipodi:docname="Copy_rest.svg"
   inkscape:version="1.1.1 (3bf5ae0d25, 2021-09-20)"
   xmlns:inkscape="http://www.inkscape.org/namespaces/inkscape"
   xmlns:sodipodi="http://sodipodi.sourceforge.net/DTD/sodipodi-0.dtd"
   xmlns="http://www.w3.org/2000/svg"
   xmlns:svg="http://www.w3.org/2000/svg">
  <defs
     id="defs10" />
  <sodipodi:namedview
     id="namedview8"
     pagecolor="#ffffff"
     bordercolor="#666666"
     borderopacity="1.0"
     inkscape:pageshadow="2"
     inkscape:pageopacity="0.0"
     inkscape:pagecheckerboard="0"
     showgrid="false"
     inkscape:zoom="26.25"
     inkscape:cx="8.8952381"
     inkscape:cy="10.990476"
     inkscape:window-width="3840"
     inkscape:window-height="2041"
     inkscape:window-x="3840"
     inkscape:window-y="0"
     inkscape:window-maximized="1"
     inkscape:current-layer="svg6" />
  <rect
     width="12.4"
     height="15.5"
     transform="scale(-1,1)"
     stroke="#68ab25"
     stroke-width="1.5"
     stroke-linecap="round"
     stroke-linejoin="round"
     id="rect2"
     x="-13.15"
     y="5.75" />
  <path
     d="m 15.65,16.75 h 2.5 v -16 H 6.1499996 v 2.50762"
     stroke="#68ab25"
     stroke-width="1.5"
     stroke-linecap="round"
     stroke-linejoin="round"
     id="path4" />
</svg>
