<svg width="24" height="24" viewBox="0 0 24 24" fill="none" xmlns="http://www.w3.org/2000/svg">
<path d="M2.75 21.25L6.24484 20.1864M2.75 21.25L3.81365 17.7552M2.75 21.25L4.95235 18.8939M18.5 9.5L20 8C21.1046 6.89543 21.1046 5.10457 20 4V4C18.8954 2.89543 17.1046 2.89543 16 4L14.5 5.5M18.5 9.5L8.5 19.5L6.24484 20.1864M18.5 9.5L14.5 5.5M14.5 5.5L4.5 15.5L3.81365 17.7552M6.24484 20.1864L4.95235 18.8939M3.81365 17.7552L4.95235 18.8939" stroke="#7bcf28" stroke-width="1.5" stroke-linecap="round" stroke-linejoin="round"/>
</svg>
